<?xml version="1.0" encoding="utf-8"?>
<svg xmlns="http://www.w3.org/2000/svg" xmlns:xlink="http://www.w3.org/1999/xlink" width="600" height="400" viewBox="0 0 2400 1600">
<defs>
  <clipPath id="clip890">
    <rect x="0" y="0" width="2400" height="1600"/>
  </clipPath>
</defs>
<path clip-path="url(#clip890)" d="
M0 1600 L2400 1600 L2400 0 L0 0  Z
  " fill="#ffffff" fill-rule="evenodd" fill-opacity="1"/>
<defs>
  <clipPath id="clip891">
    <rect x="480" y="0" width="1681" height="1600"/>
  </clipPath>
</defs>
<path clip-path="url(#clip890)" d="
M175.024 1423.18 L2352.76 1423.18 L2352.76 47.2441 L175.024 47.2441  Z
  " fill="#ffffff" fill-rule="evenodd" fill-opacity="1"/>
<defs>
  <clipPath id="clip892">
    <rect x="175" y="47" width="2179" height="1377"/>
  </clipPath>
</defs>
<polyline clip-path="url(#clip892)" style="stroke:#000000; stroke-width:2; stroke-opacity:0.1; fill:none" points="
  479.391,1423.18 479.391,47.2441 
  "/>
<polyline clip-path="url(#clip892)" style="stroke:#000000; stroke-width:2; stroke-opacity:0.1; fill:none" points="
  940.861,1423.18 940.861,47.2441 
  "/>
<polyline clip-path="url(#clip892)" style="stroke:#000000; stroke-width:2; stroke-opacity:0.1; fill:none" points="
  1402.33,1423.18 1402.33,47.2441 
  "/>
<polyline clip-path="url(#clip892)" style="stroke:#000000; stroke-width:2; stroke-opacity:0.1; fill:none" points="
  1863.8,1423.18 1863.8,47.2441 
  "/>
<polyline clip-path="url(#clip892)" style="stroke:#000000; stroke-width:2; stroke-opacity:0.1; fill:none" points="
  2325.27,1423.18 2325.27,47.2441 
  "/>
<polyline clip-path="url(#clip890)" style="stroke:#000000; stroke-width:4; stroke-opacity:1; fill:none" points="
  175.024,1423.18 2352.76,1423.18 
  "/>
<polyline clip-path="url(#clip890)" style="stroke:#000000; stroke-width:4; stroke-opacity:1; fill:none" points="
  479.391,1423.18 479.391,1406.67 
  "/>
<polyline clip-path="url(#clip890)" style="stroke:#000000; stroke-width:4; stroke-opacity:1; fill:none" points="
  940.861,1423.18 940.861,1406.67 
  "/>
<polyline clip-path="url(#clip890)" style="stroke:#000000; stroke-width:4; stroke-opacity:1; fill:none" points="
  1402.33,1423.18 1402.33,1406.67 
  "/>
<polyline clip-path="url(#clip890)" style="stroke:#000000; stroke-width:4; stroke-opacity:1; fill:none" points="
  1863.8,1423.18 1863.8,1406.67 
  "/>
<polyline clip-path="url(#clip890)" style="stroke:#000000; stroke-width:4; stroke-opacity:1; fill:none" points="
  2325.27,1423.18 2325.27,1406.67 
  "/>
<path clip-path="url(#clip890)" d="M 0 0 M466.289 1464.71 Q463.141 1464.71 461.289 1466.86 Q459.461 1469.01 459.461 1472.76 Q459.461 1476.49 461.289 1478.67 Q463.141 1480.82 466.289 1480.82 Q469.437 1480.82 471.266 1478.67 Q473.118 1476.49 473.118 1472.76 Q473.118 1469.01 471.266 1466.86 Q469.437 1464.71 466.289 1464.71 M475.572 1450.06 L475.572 1454.31 Q473.812 1453.48 472.007 1453.04 Q470.225 1452.6 468.465 1452.6 Q463.836 1452.6 461.382 1455.73 Q458.951 1458.85 458.604 1465.17 Q459.97 1463.16 462.03 1462.09 Q464.09 1461 466.567 1461 Q471.775 1461 474.785 1464.18 Q477.817 1467.32 477.817 1472.76 Q477.817 1478.09 474.669 1481.31 Q471.521 1484.52 466.289 1484.52 Q460.294 1484.52 457.123 1479.94 Q453.951 1475.33 453.951 1466.61 Q453.951 1458.41 457.84 1453.55 Q461.729 1448.67 468.28 1448.67 Q470.039 1448.67 471.822 1449.01 Q473.627 1449.36 475.572 1450.06 Z" fill="#000000" fill-rule="evenodd" fill-opacity="1" /><path clip-path="url(#clip890)" d="M 0 0 M492.886 1452.37 Q489.275 1452.37 487.447 1455.94 Q485.641 1459.48 485.641 1466.61 Q485.641 1473.71 487.447 1477.28 Q489.275 1480.82 492.886 1480.82 Q496.521 1480.82 498.326 1477.28 Q500.155 1473.71 500.155 1466.61 Q500.155 1459.48 498.326 1455.94 Q496.521 1452.37 492.886 1452.37 M492.886 1448.67 Q498.697 1448.67 501.752 1453.27 Q504.831 1457.86 504.831 1466.61 Q504.831 1475.33 501.752 1479.94 Q498.697 1484.52 492.886 1484.52 Q487.076 1484.52 483.998 1479.94 Q480.942 1475.33 480.942 1466.61 Q480.942 1457.86 483.998 1453.27 Q487.076 1448.67 492.886 1448.67 Z" fill="#000000" fill-rule="evenodd" fill-opacity="1" /><path clip-path="url(#clip890)" d="M 0 0 M928.257 1464.71 Q925.109 1464.71 923.257 1466.86 Q921.428 1469.01 921.428 1472.76 Q921.428 1476.49 923.257 1478.67 Q925.109 1480.82 928.257 1480.82 Q931.405 1480.82 933.234 1478.67 Q935.086 1476.49 935.086 1472.76 Q935.086 1469.01 933.234 1466.86 Q931.405 1464.71 928.257 1464.71 M937.539 1450.06 L937.539 1454.31 Q935.78 1453.48 933.975 1453.04 Q932.192 1452.6 930.433 1452.6 Q925.803 1452.6 923.35 1455.73 Q920.919 1458.85 920.572 1465.17 Q921.938 1463.16 923.998 1462.09 Q926.058 1461 928.535 1461 Q933.743 1461 936.752 1464.18 Q939.785 1467.32 939.785 1472.76 Q939.785 1478.09 936.637 1481.31 Q933.488 1484.52 928.257 1484.52 Q922.262 1484.52 919.09 1479.94 Q915.919 1475.33 915.919 1466.61 Q915.919 1458.41 919.808 1453.55 Q923.697 1448.67 930.248 1448.67 Q932.007 1448.67 933.789 1449.01 Q935.595 1449.36 937.539 1450.06 Z" fill="#000000" fill-rule="evenodd" fill-opacity="1" /><path clip-path="url(#clip890)" d="M 0 0 M944.9 1449.29 L963.257 1449.29 L963.257 1453.23 L949.183 1453.23 L949.183 1461.7 Q950.201 1461.35 951.22 1461.19 Q952.238 1461 953.257 1461 Q959.044 1461 962.423 1464.18 Q965.803 1467.35 965.803 1472.76 Q965.803 1478.34 962.331 1481.44 Q958.859 1484.52 952.539 1484.52 Q950.363 1484.52 948.095 1484.15 Q945.849 1483.78 943.442 1483.04 L943.442 1478.34 Q945.525 1479.48 947.748 1480.03 Q949.97 1480.59 952.447 1480.59 Q956.451 1480.59 958.789 1478.48 Q961.127 1476.38 961.127 1472.76 Q961.127 1469.15 958.789 1467.05 Q956.451 1464.94 952.447 1464.94 Q950.572 1464.94 948.697 1465.36 Q946.845 1465.77 944.9 1466.65 L944.9 1449.29 Z" fill="#000000" fill-rule="evenodd" fill-opacity="1" /><path clip-path="url(#clip890)" d="M 0 0 M1377.71 1449.29 L1399.94 1449.29 L1399.94 1451.28 L1387.39 1483.85 L1382.5 1483.85 L1394.31 1453.23 L1377.71 1453.23 L1377.71 1449.29 Z" fill="#000000" fill-rule="evenodd" fill-opacity="1" /><path clip-path="url(#clip890)" d="M 0 0 M1415 1452.37 Q1411.39 1452.37 1409.56 1455.94 Q1407.76 1459.48 1407.76 1466.61 Q1407.76 1473.71 1409.56 1477.28 Q1411.39 1480.82 1415 1480.82 Q1418.64 1480.82 1420.44 1477.28 Q1422.27 1473.71 1422.27 1466.61 Q1422.27 1459.48 1420.44 1455.94 Q1418.64 1452.37 1415 1452.37 M1415 1448.67 Q1420.81 1448.67 1423.87 1453.27 Q1426.95 1457.86 1426.95 1466.61 Q1426.95 1475.33 1423.87 1479.94 Q1420.81 1484.52 1415 1484.52 Q1409.19 1484.52 1406.12 1479.94 Q1403.06 1475.33 1403.06 1466.61 Q1403.06 1457.86 1406.12 1453.27 Q1409.19 1448.67 1415 1448.67 Z" fill="#000000" fill-rule="evenodd" fill-opacity="1" /><path clip-path="url(#clip890)" d="M 0 0 M1839.68 1449.29 L1861.9 1449.29 L1861.9 1451.28 L1849.36 1483.85 L1844.47 1483.85 L1856.28 1453.23 L1839.68 1453.23 L1839.68 1449.29 Z" fill="#000000" fill-rule="evenodd" fill-opacity="1" /><path clip-path="url(#clip890)" d="M 0 0 M1867.02 1449.29 L1885.37 1449.29 L1885.37 1453.23 L1871.3 1453.23 L1871.3 1461.7 Q1872.32 1461.35 1873.34 1461.19 Q1874.36 1461 1875.37 1461 Q1881.16 1461 1884.54 1464.18 Q1887.92 1467.35 1887.92 1472.76 Q1887.92 1478.34 1884.45 1481.44 Q1880.98 1484.52 1874.66 1484.52 Q1872.48 1484.52 1870.21 1484.15 Q1867.97 1483.78 1865.56 1483.04 L1865.56 1478.34 Q1867.64 1479.48 1869.87 1480.03 Q1872.09 1480.59 1874.56 1480.59 Q1878.57 1480.59 1880.91 1478.48 Q1883.25 1476.38 1883.25 1472.76 Q1883.25 1469.15 1880.91 1467.05 Q1878.57 1464.94 1874.56 1464.94 Q1872.69 1464.94 1870.81 1465.36 Q1868.96 1465.77 1867.02 1466.65 L1867.02 1449.29 Z" fill="#000000" fill-rule="evenodd" fill-opacity="1" /><path clip-path="url(#clip890)" d="M 0 0 M2311.76 1467.44 Q2308.43 1467.44 2306.51 1469.22 Q2304.61 1471 2304.61 1474.13 Q2304.61 1477.25 2306.51 1479.04 Q2308.43 1480.82 2311.76 1480.82 Q2315.1 1480.82 2317.02 1479.04 Q2318.94 1477.23 2318.94 1474.13 Q2318.94 1471 2317.02 1469.22 Q2315.12 1467.44 2311.76 1467.44 M2307.09 1465.45 Q2304.08 1464.71 2302.39 1462.65 Q2300.72 1460.59 2300.72 1457.63 Q2300.72 1453.48 2303.66 1451.07 Q2306.63 1448.67 2311.76 1448.67 Q2316.93 1448.67 2319.87 1451.07 Q2322.81 1453.48 2322.81 1457.63 Q2322.81 1460.59 2321.12 1462.65 Q2319.45 1464.71 2316.46 1465.45 Q2319.84 1466.24 2321.72 1468.53 Q2323.62 1470.82 2323.62 1474.13 Q2323.62 1479.15 2320.54 1481.84 Q2317.48 1484.52 2311.76 1484.52 Q2306.05 1484.52 2302.97 1481.84 Q2299.91 1479.15 2299.91 1474.13 Q2299.91 1470.82 2301.81 1468.53 Q2303.71 1466.24 2307.09 1465.45 M2305.38 1458.06 Q2305.38 1460.75 2307.04 1462.25 Q2308.73 1463.76 2311.76 1463.76 Q2314.77 1463.76 2316.46 1462.25 Q2318.18 1460.75 2318.18 1458.06 Q2318.18 1455.38 2316.46 1453.88 Q2314.77 1452.37 2311.76 1452.37 Q2308.73 1452.37 2307.04 1453.88 Q2305.38 1455.38 2305.38 1458.06 Z" fill="#000000" fill-rule="evenodd" fill-opacity="1" /><path clip-path="url(#clip890)" d="M 0 0 M2338.69 1452.37 Q2335.07 1452.37 2333.25 1455.94 Q2331.44 1459.48 2331.44 1466.61 Q2331.44 1473.71 2333.25 1477.28 Q2335.07 1480.82 2338.69 1480.82 Q2342.32 1480.82 2344.12 1477.28 Q2345.95 1473.71 2345.95 1466.61 Q2345.95 1459.48 2344.12 1455.94 Q2342.32 1452.37 2338.69 1452.37 M2338.69 1448.67 Q2344.5 1448.67 2347.55 1453.27 Q2350.63 1457.86 2350.63 1466.61 Q2350.63 1475.33 2347.55 1479.94 Q2344.5 1484.52 2338.69 1484.52 Q2332.87 1484.52 2329.8 1479.94 Q2326.74 1475.33 2326.74 1466.61 Q2326.74 1457.86 2329.8 1453.27 Q2332.87 1448.67 2338.69 1448.67 Z" fill="#000000" fill-rule="evenodd" fill-opacity="1" /><path clip-path="url(#clip890)" d="M 0 0 M1124.34 1539.24 Q1126.53 1535.29 1129.59 1533.41 Q1132.65 1531.54 1136.78 1531.54 Q1142.35 1531.54 1145.38 1535.45 Q1148.4 1539.33 1148.4 1546.53 L1148.4 1568.04 L1142.51 1568.04 L1142.51 1546.72 Q1142.51 1541.59 1140.7 1539.11 Q1138.88 1536.63 1135.16 1536.63 Q1130.61 1536.63 1127.97 1539.65 Q1125.32 1542.68 1125.32 1547.9 L1125.32 1568.04 L1119.44 1568.04 L1119.44 1546.72 Q1119.44 1541.56 1117.62 1539.11 Q1115.81 1536.63 1112.02 1536.63 Q1107.53 1536.63 1104.89 1539.68 Q1102.25 1542.71 1102.25 1547.9 L1102.25 1568.04 L1096.36 1568.04 L1096.36 1532.4 L1102.25 1532.4 L1102.25 1537.93 Q1104.25 1534.66 1107.05 1533.1 Q1109.86 1531.54 1113.71 1531.54 Q1117.59 1531.54 1120.3 1533.51 Q1123.03 1535.48 1124.34 1539.24 Z" fill="#000000" fill-rule="evenodd" fill-opacity="1" /><path clip-path="url(#clip890)" d="M 0 0 M1170.74 1550.12 Q1163.65 1550.12 1160.91 1551.75 Q1158.17 1553.37 1158.17 1557.29 Q1158.17 1560.4 1160.21 1562.25 Q1162.28 1564.07 1165.81 1564.07 Q1170.68 1564.07 1173.61 1560.63 Q1176.57 1557.16 1176.57 1551.43 L1176.57 1550.12 L1170.74 1550.12 M1182.42 1547.71 L1182.42 1568.04 L1176.57 1568.04 L1176.57 1562.63 Q1174.56 1565.88 1171.57 1567.44 Q1168.58 1568.97 1164.25 1568.97 Q1158.78 1568.97 1155.53 1565.91 Q1152.32 1562.82 1152.32 1557.67 Q1152.32 1551.65 1156.33 1548.6 Q1160.37 1545.54 1168.36 1545.54 L1176.57 1545.54 L1176.57 1544.97 Q1176.57 1540.93 1173.89 1538.73 Q1171.25 1536.5 1166.45 1536.5 Q1163.39 1536.5 1160.49 1537.23 Q1157.6 1537.97 1154.93 1539.43 L1154.93 1534.02 Q1158.14 1532.78 1161.16 1532.17 Q1164.19 1531.54 1167.05 1531.54 Q1174.79 1531.54 1178.61 1535.55 Q1182.42 1539.56 1182.42 1547.71 Z" fill="#000000" fill-rule="evenodd" fill-opacity="1" /><path clip-path="url(#clip890)" d="M 0 0 M1188.57 1518.52 L1194.42 1518.52 L1194.42 1568.04 L1188.57 1568.04 L1188.57 1518.52 Z" fill="#000000" fill-rule="evenodd" fill-opacity="1" /><path clip-path="url(#clip890)" d="M 0 0 M1231.06 1548.76 L1231.06 1551.62 L1204.13 1551.62 Q1204.51 1557.67 1207.76 1560.85 Q1211.04 1564 1216.86 1564 Q1220.24 1564 1223.39 1563.17 Q1226.57 1562.35 1229.69 1560.69 L1229.69 1566.23 Q1226.54 1567.57 1223.23 1568.27 Q1219.92 1568.97 1216.51 1568.97 Q1207.98 1568.97 1202.99 1564 Q1198.02 1559.04 1198.02 1550.57 Q1198.02 1541.82 1202.73 1536.69 Q1207.47 1531.54 1215.49 1531.54 Q1222.69 1531.54 1226.86 1536.18 Q1231.06 1540.8 1231.06 1548.76 M1225.2 1547.04 Q1225.14 1542.23 1222.5 1539.37 Q1219.89 1536.5 1215.56 1536.5 Q1210.66 1536.5 1207.7 1539.27 Q1204.77 1542.04 1204.32 1547.07 L1225.2 1547.04 Z" fill="#000000" fill-rule="evenodd" fill-opacity="1" /><path clip-path="url(#clip890)" d="M 0 0 M1287.55 1546.53 L1287.55 1568.04 L1281.7 1568.04 L1281.7 1546.72 Q1281.7 1541.66 1279.72 1539.14 Q1277.75 1536.63 1273.8 1536.63 Q1269.06 1536.63 1266.32 1539.65 Q1263.59 1542.68 1263.59 1547.9 L1263.59 1568.04 L1257.7 1568.04 L1257.7 1518.52 L1263.59 1518.52 L1263.59 1537.93 Q1265.69 1534.72 1268.52 1533.13 Q1271.39 1531.54 1275.11 1531.54 Q1281.25 1531.54 1284.4 1535.36 Q1287.55 1539.14 1287.55 1546.53 Z" fill="#000000" fill-rule="evenodd" fill-opacity="1" /><path clip-path="url(#clip890)" d="M 0 0 M1324.19 1548.76 L1324.19 1551.62 L1297.26 1551.62 Q1297.64 1557.67 1300.89 1560.85 Q1304.17 1564 1309.99 1564 Q1313.37 1564 1316.52 1563.17 Q1319.7 1562.35 1322.82 1560.69 L1322.82 1566.23 Q1319.67 1567.57 1316.36 1568.27 Q1313.05 1568.97 1309.64 1568.97 Q1301.11 1568.97 1296.12 1564 Q1291.15 1559.04 1291.15 1550.57 Q1291.15 1541.82 1295.86 1536.69 Q1300.6 1531.54 1308.62 1531.54 Q1315.82 1531.54 1319.99 1536.18 Q1324.19 1540.8 1324.19 1548.76 M1318.33 1547.04 Q1318.27 1542.23 1315.63 1539.37 Q1313.02 1536.5 1308.69 1536.5 Q1303.79 1536.5 1300.83 1539.27 Q1297.9 1542.04 1297.45 1547.07 L1318.33 1547.04 Z" fill="#000000" fill-rule="evenodd" fill-opacity="1" /><path clip-path="url(#clip890)" d="M 0 0 M1330.33 1532.4 L1336.19 1532.4 L1336.19 1568.04 L1330.33 1568.04 L1330.33 1532.4 M1330.33 1518.52 L1336.19 1518.52 L1336.19 1525.93 L1330.33 1525.93 L1330.33 1518.52 Z" fill="#000000" fill-rule="evenodd" fill-opacity="1" /><path clip-path="url(#clip890)" d="M 0 0 M1365.79 1549.81 Q1365.79 1543.44 1363.15 1539.94 Q1360.54 1536.44 1355.79 1536.44 Q1351.08 1536.44 1348.44 1539.94 Q1345.83 1543.44 1345.83 1549.81 Q1345.83 1556.14 1348.44 1559.64 Q1351.08 1563.14 1355.79 1563.14 Q1360.54 1563.14 1363.15 1559.64 Q1365.79 1556.14 1365.79 1549.81 M1371.65 1563.62 Q1371.65 1572.72 1367.6 1577.15 Q1363.56 1581.6 1355.22 1581.6 Q1352.13 1581.6 1349.4 1581.13 Q1346.66 1580.68 1344.08 1579.72 L1344.08 1574.03 Q1346.66 1575.43 1349.17 1576.1 Q1351.69 1576.76 1354.3 1576.76 Q1360.06 1576.76 1362.92 1573.74 Q1365.79 1570.75 1365.79 1564.67 L1365.79 1561.77 Q1363.97 1564.92 1361.14 1566.48 Q1358.31 1568.04 1354.36 1568.04 Q1347.81 1568.04 1343.8 1563.05 Q1339.79 1558.05 1339.79 1549.81 Q1339.79 1541.53 1343.8 1536.53 Q1347.81 1531.54 1354.36 1531.54 Q1358.31 1531.54 1361.14 1533.1 Q1363.97 1534.66 1365.79 1537.81 L1365.79 1532.4 L1371.65 1532.4 L1371.65 1563.62 Z" fill="#000000" fill-rule="evenodd" fill-opacity="1" /><path clip-path="url(#clip890)" d="M 0 0 M1407.42 1546.53 L1407.42 1568.04 L1401.56 1568.04 L1401.56 1546.72 Q1401.56 1541.66 1399.59 1539.14 Q1397.62 1536.63 1393.67 1536.63 Q1388.93 1536.63 1386.19 1539.65 Q1383.45 1542.68 1383.45 1547.9 L1383.45 1568.04 L1377.57 1568.04 L1377.57 1518.52 L1383.45 1518.52 L1383.45 1537.93 Q1385.55 1534.72 1388.39 1533.13 Q1391.25 1531.54 1394.98 1531.54 Q1401.12 1531.54 1404.27 1535.36 Q1407.42 1539.14 1407.42 1546.53 Z" fill="#000000" fill-rule="evenodd" fill-opacity="1" /><path clip-path="url(#clip890)" d="M 0 0 M1419.36 1522.27 L1419.36 1532.4 L1431.42 1532.4 L1431.42 1536.95 L1419.36 1536.95 L1419.36 1556.3 Q1419.36 1560.66 1420.53 1561.9 Q1421.74 1563.14 1425.4 1563.14 L1431.42 1563.14 L1431.42 1568.04 L1425.4 1568.04 Q1418.62 1568.04 1416.05 1565.53 Q1413.47 1562.98 1413.47 1556.3 L1413.47 1536.95 L1409.17 1536.95 L1409.17 1532.4 L1413.47 1532.4 L1413.47 1522.27 L1419.36 1522.27 Z" fill="#000000" fill-rule="evenodd" fill-opacity="1" /><polyline clip-path="url(#clip892)" style="stroke:#000000; stroke-width:2; stroke-opacity:0.1; fill:none" points="
  175.024,1384.24 2352.76,1384.24 
  "/>
<polyline clip-path="url(#clip892)" style="stroke:#000000; stroke-width:2; stroke-opacity:0.1; fill:none" points="
  175.024,1111.54 2352.76,1111.54 
  "/>
<polyline clip-path="url(#clip892)" style="stroke:#000000; stroke-width:2; stroke-opacity:0.1; fill:none" points="
  175.024,838.838 2352.76,838.838 
  "/>
<polyline clip-path="url(#clip892)" style="stroke:#000000; stroke-width:2; stroke-opacity:0.1; fill:none" points="
  175.024,566.138 2352.76,566.138 
  "/>
<polyline clip-path="url(#clip892)" style="stroke:#000000; stroke-width:2; stroke-opacity:0.1; fill:none" points="
  175.024,293.438 2352.76,293.438 
  "/>
<polyline clip-path="url(#clip890)" style="stroke:#000000; stroke-width:4; stroke-opacity:1; fill:none" points="
  175.024,1423.18 175.024,47.2441 
  "/>
<polyline clip-path="url(#clip890)" style="stroke:#000000; stroke-width:4; stroke-opacity:1; fill:none" points="
  175.024,1384.24 201.157,1384.24 
  "/>
<polyline clip-path="url(#clip890)" style="stroke:#000000; stroke-width:4; stroke-opacity:1; fill:none" points="
  175.024,1111.54 201.157,1111.54 
  "/>
<polyline clip-path="url(#clip890)" style="stroke:#000000; stroke-width:4; stroke-opacity:1; fill:none" points="
  175.024,838.838 201.157,838.838 
  "/>
<polyline clip-path="url(#clip890)" style="stroke:#000000; stroke-width:4; stroke-opacity:1; fill:none" points="
  175.024,566.138 201.157,566.138 
  "/>
<polyline clip-path="url(#clip890)" style="stroke:#000000; stroke-width:4; stroke-opacity:1; fill:none" points="
  175.024,293.438 201.157,293.438 
  "/>
<path clip-path="url(#clip890)" d="M 0 0 M63.0985 1370.04 Q59.4875 1370.04 57.6588 1373.6 Q55.8532 1377.14 55.8532 1384.27 Q55.8532 1391.38 57.6588 1394.94 Q59.4875 1398.49 63.0985 1398.49 Q66.7328 1398.49 68.5383 1394.94 Q70.367 1391.38 70.367 1384.27 Q70.367 1377.14 68.5383 1373.6 Q66.7328 1370.04 63.0985 1370.04 M63.0985 1366.33 Q68.9087 1366.33 71.9642 1370.94 Q75.0429 1375.52 75.0429 1384.27 Q75.0429 1393 71.9642 1397.61 Q68.9087 1402.19 63.0985 1402.19 Q57.2884 1402.19 54.2097 1397.61 Q51.1542 1393 51.1542 1384.27 Q51.1542 1375.52 54.2097 1370.94 Q57.2884 1366.33 63.0985 1366.33 Z" fill="#000000" fill-rule="evenodd" fill-opacity="1" /><path clip-path="url(#clip890)" d="M 0 0 M80.1123 1395.64 L84.9966 1395.64 L84.9966 1401.52 L80.1123 1401.52 L80.1123 1395.64 Z" fill="#000000" fill-rule="evenodd" fill-opacity="1" /><path clip-path="url(#clip890)" d="M 0 0 M100.066 1370.04 Q96.4548 1370.04 94.6262 1373.6 Q92.8206 1377.14 92.8206 1384.27 Q92.8206 1391.38 94.6262 1394.94 Q96.4548 1398.49 100.066 1398.49 Q103.7 1398.49 105.506 1394.94 Q107.334 1391.38 107.334 1384.27 Q107.334 1377.14 105.506 1373.6 Q103.7 1370.04 100.066 1370.04 M100.066 1366.33 Q105.876 1366.33 108.932 1370.94 Q112.01 1375.52 112.01 1384.27 Q112.01 1393 108.932 1397.61 Q105.876 1402.19 100.066 1402.19 Q94.2558 1402.19 91.1771 1397.61 Q88.1216 1393 88.1216 1384.27 Q88.1216 1375.52 91.1771 1370.94 Q94.2558 1366.33 100.066 1366.33 Z" fill="#000000" fill-rule="evenodd" fill-opacity="1" /><path clip-path="url(#clip890)" d="M 0 0 M127.08 1370.04 Q123.469 1370.04 121.64 1373.6 Q119.834 1377.14 119.834 1384.27 Q119.834 1391.38 121.64 1394.94 Q123.469 1398.49 127.08 1398.49 Q130.714 1398.49 132.519 1394.94 Q134.348 1391.38 134.348 1384.27 Q134.348 1377.14 132.519 1373.6 Q130.714 1370.04 127.08 1370.04 M127.08 1366.33 Q132.89 1366.33 135.945 1370.94 Q139.024 1375.52 139.024 1384.27 Q139.024 1393 135.945 1397.61 Q132.89 1402.19 127.08 1402.19 Q121.27 1402.19 118.191 1397.61 Q115.135 1393 115.135 1384.27 Q115.135 1375.52 118.191 1370.94 Q121.27 1366.33 127.08 1366.33 Z" fill="#000000" fill-rule="evenodd" fill-opacity="1" /><path clip-path="url(#clip890)" d="M 0 0 M63.7467 1097.34 Q60.1356 1097.34 58.3069 1100.9 Q56.5014 1104.44 56.5014 1111.57 Q56.5014 1118.68 58.3069 1122.24 Q60.1356 1125.79 63.7467 1125.79 Q67.3809 1125.79 69.1865 1122.24 Q71.0152 1118.68 71.0152 1111.57 Q71.0152 1104.44 69.1865 1100.9 Q67.3809 1097.34 63.7467 1097.34 M63.7467 1093.63 Q69.5568 1093.63 72.6124 1098.24 Q75.6911 1102.82 75.6911 1111.57 Q75.6911 1120.3 72.6124 1124.91 Q69.5568 1129.49 63.7467 1129.49 Q57.9365 1129.49 54.8578 1124.91 Q51.8023 1120.3 51.8023 1111.57 Q51.8023 1102.82 54.8578 1098.24 Q57.9365 1093.63 63.7467 1093.63 Z" fill="#000000" fill-rule="evenodd" fill-opacity="1" /><path clip-path="url(#clip890)" d="M 0 0 M80.7605 1122.94 L85.6447 1122.94 L85.6447 1128.82 L80.7605 1128.82 L80.7605 1122.94 Z" fill="#000000" fill-rule="evenodd" fill-opacity="1" /><path clip-path="url(#clip890)" d="M 0 0 M100.714 1097.34 Q97.103 1097.34 95.2743 1100.9 Q93.4688 1104.44 93.4688 1111.57 Q93.4688 1118.68 95.2743 1122.24 Q97.103 1125.79 100.714 1125.79 Q104.348 1125.79 106.154 1122.24 Q107.983 1118.68 107.983 1111.57 Q107.983 1104.44 106.154 1100.9 Q104.348 1097.34 100.714 1097.34 M100.714 1093.63 Q106.524 1093.63 109.58 1098.24 Q112.658 1102.82 112.658 1111.57 Q112.658 1120.3 109.58 1124.91 Q106.524 1129.49 100.714 1129.49 Q94.9039 1129.49 91.8252 1124.91 Q88.7697 1120.3 88.7697 1111.57 Q88.7697 1102.82 91.8252 1098.24 Q94.9039 1093.63 100.714 1093.63 Z" fill="#000000" fill-rule="evenodd" fill-opacity="1" /><path clip-path="url(#clip890)" d="M 0 0 M131.894 1110.18 Q135.251 1110.9 137.126 1113.17 Q139.024 1115.44 139.024 1118.77 Q139.024 1123.89 135.506 1126.69 Q131.987 1129.49 125.506 1129.49 Q123.33 1129.49 121.015 1129.05 Q118.723 1128.63 116.27 1127.78 L116.27 1123.26 Q118.214 1124.4 120.529 1124.98 Q122.844 1125.55 125.367 1125.55 Q129.765 1125.55 132.057 1123.82 Q134.371 1122.08 134.371 1118.77 Q134.371 1115.72 132.219 1114 Q130.089 1112.27 126.27 1112.27 L122.242 1112.27 L122.242 1108.42 L126.455 1108.42 Q129.904 1108.42 131.732 1107.06 Q133.561 1105.67 133.561 1103.08 Q133.561 1100.42 131.663 1099 Q129.788 1097.57 126.27 1097.57 Q124.348 1097.57 122.149 1097.98 Q119.95 1098.4 117.311 1099.28 L117.311 1095.11 Q119.973 1094.37 122.288 1094 Q124.626 1093.63 126.686 1093.63 Q132.01 1093.63 135.112 1096.06 Q138.214 1098.47 138.214 1102.59 Q138.214 1105.46 136.57 1107.45 Q134.927 1109.42 131.894 1110.18 Z" fill="#000000" fill-rule="evenodd" fill-opacity="1" /><path clip-path="url(#clip890)" d="M 0 0 M62.9365 824.637 Q59.3254 824.637 57.4967 828.201 Q55.6912 831.743 55.6912 838.873 Q55.6912 845.979 57.4967 849.544 Q59.3254 853.086 62.9365 853.086 Q66.5707 853.086 68.3763 849.544 Q70.205 845.979 70.205 838.873 Q70.205 831.743 68.3763 828.201 Q66.5707 824.637 62.9365 824.637 M62.9365 820.933 Q68.7467 820.933 71.8022 825.539 Q74.8809 830.123 74.8809 838.873 Q74.8809 847.6 71.8022 852.206 Q68.7467 856.789 62.9365 856.789 Q57.1264 856.789 54.0477 852.206 Q50.9921 847.6 50.9921 838.873 Q50.9921 830.123 54.0477 825.539 Q57.1264 820.933 62.9365 820.933 Z" fill="#000000" fill-rule="evenodd" fill-opacity="1" /><path clip-path="url(#clip890)" d="M 0 0 M79.9503 850.238 L84.8345 850.238 L84.8345 856.118 L79.9503 856.118 L79.9503 850.238 Z" fill="#000000" fill-rule="evenodd" fill-opacity="1" /><path clip-path="url(#clip890)" d="M 0 0 M99.9039 824.637 Q96.2928 824.637 94.4641 828.201 Q92.6586 831.743 92.6586 838.873 Q92.6586 845.979 94.4641 849.544 Q96.2928 853.086 99.9039 853.086 Q103.538 853.086 105.344 849.544 Q107.172 845.979 107.172 838.873 Q107.172 831.743 105.344 828.201 Q103.538 824.637 99.9039 824.637 M99.9039 820.933 Q105.714 820.933 108.77 825.539 Q111.848 830.123 111.848 838.873 Q111.848 847.6 108.77 852.206 Q105.714 856.789 99.9039 856.789 Q94.0937 856.789 91.0151 852.206 Q87.9595 847.6 87.9595 838.873 Q87.9595 830.123 91.0151 825.539 Q94.0937 820.933 99.9039 820.933 Z" fill="#000000" fill-rule="evenodd" fill-opacity="1" /><path clip-path="url(#clip890)" d="M 0 0 M127.496 836.975 Q124.348 836.975 122.496 839.127 Q120.668 841.28 120.668 845.03 Q120.668 848.757 122.496 850.933 Q124.348 853.086 127.496 853.086 Q130.644 853.086 132.473 850.933 Q134.325 848.757 134.325 845.03 Q134.325 841.28 132.473 839.127 Q130.644 836.975 127.496 836.975 M136.779 822.322 L136.779 826.581 Q135.019 825.748 133.214 825.308 Q131.432 824.868 129.672 824.868 Q125.043 824.868 122.589 827.993 Q120.158 831.118 119.811 837.438 Q121.177 835.424 123.237 834.359 Q125.297 833.271 127.774 833.271 Q132.982 833.271 135.992 836.442 Q139.024 839.59 139.024 845.03 Q139.024 850.354 135.876 853.572 Q132.728 856.789 127.496 856.789 Q121.501 856.789 118.33 852.206 Q115.158 847.6 115.158 838.873 Q115.158 830.678 119.047 825.817 Q122.936 820.933 129.487 820.933 Q131.246 820.933 133.029 821.28 Q134.834 821.627 136.779 822.322 Z" fill="#000000" fill-rule="evenodd" fill-opacity="1" /><path clip-path="url(#clip890)" d="M 0 0 M63.2837 551.937 Q59.6726 551.937 57.8439 555.501 Q56.0384 559.043 56.0384 566.173 Q56.0384 573.279 57.8439 576.844 Q59.6726 580.386 63.2837 580.386 Q66.918 580.386 68.7235 576.844 Q70.5522 573.279 70.5522 566.173 Q70.5522 559.043 68.7235 555.501 Q66.918 551.937 63.2837 551.937 M63.2837 548.233 Q69.0939 548.233 72.1494 552.839 Q75.2281 557.423 75.2281 566.173 Q75.2281 574.899 72.1494 579.506 Q69.0939 584.089 63.2837 584.089 Q57.4736 584.089 54.3949 579.506 Q51.3393 574.899 51.3393 566.173 Q51.3393 557.423 54.3949 552.839 Q57.4736 548.233 63.2837 548.233 Z" fill="#000000" fill-rule="evenodd" fill-opacity="1" /><path clip-path="url(#clip890)" d="M 0 0 M80.2975 577.538 L85.1818 577.538 L85.1818 583.418 L80.2975 583.418 L80.2975 577.538 Z" fill="#000000" fill-rule="evenodd" fill-opacity="1" /><path clip-path="url(#clip890)" d="M 0 0 M100.251 551.937 Q96.64 551.937 94.8113 555.501 Q93.0058 559.043 93.0058 566.173 Q93.0058 573.279 94.8113 576.844 Q96.64 580.386 100.251 580.386 Q103.885 580.386 105.691 576.844 Q107.52 573.279 107.52 566.173 Q107.52 559.043 105.691 555.501 Q103.885 551.937 100.251 551.937 M100.251 548.233 Q106.061 548.233 109.117 552.839 Q112.196 557.423 112.196 566.173 Q112.196 574.899 109.117 579.506 Q106.061 584.089 100.251 584.089 Q94.441 584.089 91.3623 579.506 Q88.3067 574.899 88.3067 566.173 Q88.3067 557.423 91.3623 552.839 Q94.441 548.233 100.251 548.233 Z" fill="#000000" fill-rule="evenodd" fill-opacity="1" /><path clip-path="url(#clip890)" d="M 0 0 M117.404 582.7 L117.404 578.441 Q119.163 579.274 120.969 579.714 Q122.774 580.154 124.51 580.154 Q129.14 580.154 131.57 577.052 Q134.024 573.927 134.371 567.585 Q133.029 569.575 130.969 570.64 Q128.908 571.705 126.408 571.705 Q121.223 571.705 118.191 568.58 Q115.182 565.432 115.182 559.992 Q115.182 554.668 118.33 551.45 Q121.478 548.233 126.709 548.233 Q132.705 548.233 135.853 552.839 Q139.024 557.423 139.024 566.173 Q139.024 574.344 135.135 579.228 Q131.269 584.089 124.719 584.089 Q122.959 584.089 121.154 583.742 Q119.348 583.395 117.404 582.7 M126.709 568.048 Q129.857 568.048 131.686 565.895 Q133.538 563.742 133.538 559.992 Q133.538 556.265 131.686 554.112 Q129.857 551.937 126.709 551.937 Q123.561 551.937 121.709 554.112 Q119.881 556.265 119.881 559.992 Q119.881 563.742 121.709 565.895 Q123.561 568.048 126.709 568.048 Z" fill="#000000" fill-rule="evenodd" fill-opacity="1" /><path clip-path="url(#clip890)" d="M 0 0 M65.9226 279.236 Q62.3115 279.236 60.4828 282.801 Q58.6773 286.343 58.6773 293.472 Q58.6773 300.579 60.4828 304.144 Q62.3115 307.685 65.9226 307.685 Q69.5568 307.685 71.3624 304.144 Q73.1911 300.579 73.1911 293.472 Q73.1911 286.343 71.3624 282.801 Q69.5568 279.236 65.9226 279.236 M65.9226 275.533 Q71.7328 275.533 74.7883 280.139 Q77.867 284.723 77.867 293.472 Q77.867 302.199 74.7883 306.806 Q71.7328 311.389 65.9226 311.389 Q60.1124 311.389 57.0338 306.806 Q53.9782 302.199 53.9782 293.472 Q53.9782 284.723 57.0338 280.139 Q60.1124 275.533 65.9226 275.533 Z" fill="#000000" fill-rule="evenodd" fill-opacity="1" /><path clip-path="url(#clip890)" d="M 0 0 M82.9364 304.838 L87.8206 304.838 L87.8206 310.718 L82.9364 310.718 L82.9364 304.838 Z" fill="#000000" fill-rule="evenodd" fill-opacity="1" /><path clip-path="url(#clip890)" d="M 0 0 M93.7002 306.783 L101.339 306.783 L101.339 280.417 L93.0289 282.084 L93.0289 277.824 L101.293 276.158 L105.969 276.158 L105.969 306.783 L113.608 306.783 L113.608 310.718 L93.7002 310.718 L93.7002 306.783 Z" fill="#000000" fill-rule="evenodd" fill-opacity="1" /><path clip-path="url(#clip890)" d="M 0 0 M122.705 306.783 L139.024 306.783 L139.024 310.718 L117.08 310.718 L117.08 306.783 Q119.742 304.028 124.325 299.398 Q128.932 294.746 130.112 293.403 Q132.357 290.88 133.237 289.144 Q134.14 287.385 134.14 285.695 Q134.14 282.94 132.195 281.204 Q130.274 279.468 127.172 279.468 Q124.973 279.468 122.52 280.232 Q120.089 280.996 117.311 282.547 L117.311 277.824 Q120.135 276.69 122.589 276.111 Q125.043 275.533 127.08 275.533 Q132.45 275.533 135.644 278.218 Q138.839 280.903 138.839 285.394 Q138.839 287.523 138.029 289.445 Q137.242 291.343 135.135 293.935 Q134.556 294.607 131.455 297.824 Q128.353 301.019 122.705 306.783 Z" fill="#000000" fill-rule="evenodd" fill-opacity="1" /><path clip-path="url(#clip892)" d="
M294.803 1380.6 L294.803 1384.24 L340.95 1384.24 L340.95 1380.6 L294.803 1380.6 L294.803 1380.6  Z
  " fill="#009af9" fill-rule="evenodd" fill-opacity="1"/>
<polyline clip-path="url(#clip892)" style="stroke:#000000; stroke-width:4; stroke-opacity:1; fill:none" points="
  294.803,1380.6 294.803,1384.24 340.95,1384.24 340.95,1380.6 294.803,1380.6 
  "/>
<path clip-path="url(#clip892)" d="
M340.95 1384.24 L340.95 1384.24 L387.097 1384.24 L387.097 1384.24 L340.95 1384.24 L340.95 1384.24  Z
  " fill="#009af9" fill-rule="evenodd" fill-opacity="1"/>
<polyline clip-path="url(#clip892)" style="stroke:#000000; stroke-width:4; stroke-opacity:1; fill:none" points="
  340.95,1384.24 340.95,1384.24 387.097,1384.24 340.95,1384.24 
  "/>
<path clip-path="url(#clip892)" d="
M387.097 1380.6 L387.097 1384.24 L433.244 1384.24 L433.244 1380.6 L387.097 1380.6 L387.097 1380.6  Z
  " fill="#009af9" fill-rule="evenodd" fill-opacity="1"/>
<polyline clip-path="url(#clip892)" style="stroke:#000000; stroke-width:4; stroke-opacity:1; fill:none" points="
  387.097,1380.6 387.097,1384.24 433.244,1384.24 433.244,1380.6 387.097,1380.6 
  "/>
<path clip-path="url(#clip892)" d="
M433.244 1373.33 L433.244 1384.24 L479.391 1384.24 L479.391 1373.33 L433.244 1373.33 L433.244 1373.33  Z
  " fill="#009af9" fill-rule="evenodd" fill-opacity="1"/>
<polyline clip-path="url(#clip892)" style="stroke:#000000; stroke-width:4; stroke-opacity:1; fill:none" points="
  433.244,1373.33 433.244,1384.24 479.391,1384.24 479.391,1373.33 433.244,1373.33 
  "/>
<path clip-path="url(#clip892)" d="
M479.391 1366.06 L479.391 1384.24 L525.538 1384.24 L525.538 1366.06 L479.391 1366.06 L479.391 1366.06  Z
  " fill="#009af9" fill-rule="evenodd" fill-opacity="1"/>
<polyline clip-path="url(#clip892)" style="stroke:#000000; stroke-width:4; stroke-opacity:1; fill:none" points="
  479.391,1366.06 479.391,1384.24 525.538,1384.24 525.538,1366.06 479.391,1366.06 
  "/>
<path clip-path="url(#clip892)" d="
M525.538 1347.88 L525.538 1384.24 L571.685 1384.24 L571.685 1347.88 L525.538 1347.88 L525.538 1347.88  Z
  " fill="#009af9" fill-rule="evenodd" fill-opacity="1"/>
<polyline clip-path="url(#clip892)" style="stroke:#000000; stroke-width:4; stroke-opacity:1; fill:none" points="
  525.538,1347.88 525.538,1384.24 571.685,1384.24 571.685,1347.88 525.538,1347.88 
  "/>
<path clip-path="url(#clip892)" d="
M571.685 1344.24 L571.685 1384.24 L617.832 1384.24 L617.832 1344.24 L571.685 1344.24 L571.685 1344.24  Z
  " fill="#009af9" fill-rule="evenodd" fill-opacity="1"/>
<polyline clip-path="url(#clip892)" style="stroke:#000000; stroke-width:4; stroke-opacity:1; fill:none" points="
  571.685,1344.24 571.685,1384.24 617.832,1384.24 617.832,1344.24 571.685,1344.24 
  "/>
<path clip-path="url(#clip892)" d="
M617.832 1318.79 L617.832 1384.24 L663.979 1384.24 L663.979 1318.79 L617.832 1318.79 L617.832 1318.79  Z
  " fill="#009af9" fill-rule="evenodd" fill-opacity="1"/>
<polyline clip-path="url(#clip892)" style="stroke:#000000; stroke-width:4; stroke-opacity:1; fill:none" points="
  617.832,1318.79 617.832,1384.24 663.979,1384.24 663.979,1318.79 617.832,1318.79 
  "/>
<path clip-path="url(#clip892)" d="
M663.979 1293.34 L663.979 1384.24 L710.126 1384.24 L710.126 1293.34 L663.979 1293.34 L663.979 1293.34  Z
  " fill="#009af9" fill-rule="evenodd" fill-opacity="1"/>
<polyline clip-path="url(#clip892)" style="stroke:#000000; stroke-width:4; stroke-opacity:1; fill:none" points="
  663.979,1293.34 663.979,1384.24 710.126,1384.24 710.126,1293.34 663.979,1293.34 
  "/>
<path clip-path="url(#clip892)" d="
M710.126 1286.07 L710.126 1384.24 L756.273 1384.24 L756.273 1286.07 L710.126 1286.07 L710.126 1286.07  Z
  " fill="#009af9" fill-rule="evenodd" fill-opacity="1"/>
<polyline clip-path="url(#clip892)" style="stroke:#000000; stroke-width:4; stroke-opacity:1; fill:none" points="
  710.126,1286.07 710.126,1384.24 756.273,1384.24 756.273,1286.07 710.126,1286.07 
  "/>
<path clip-path="url(#clip892)" d="
M756.273 1224.25 L756.273 1384.24 L802.42 1384.24 L802.42 1224.25 L756.273 1224.25 L756.273 1224.25  Z
  " fill="#009af9" fill-rule="evenodd" fill-opacity="1"/>
<polyline clip-path="url(#clip892)" style="stroke:#000000; stroke-width:4; stroke-opacity:1; fill:none" points="
  756.273,1224.25 756.273,1384.24 802.42,1384.24 802.42,1224.25 756.273,1224.25 
  "/>
<path clip-path="url(#clip892)" d="
M802.42 1122.45 L802.42 1384.24 L848.567 1384.24 L848.567 1122.45 L802.42 1122.45 L802.42 1122.45  Z
  " fill="#009af9" fill-rule="evenodd" fill-opacity="1"/>
<polyline clip-path="url(#clip892)" style="stroke:#000000; stroke-width:4; stroke-opacity:1; fill:none" points="
  802.42,1122.45 802.42,1384.24 848.567,1384.24 848.567,1122.45 802.42,1122.45 
  "/>
<path clip-path="url(#clip892)" d="
M848.567 1151.53 L848.567 1384.24 L894.714 1384.24 L894.714 1151.53 L848.567 1151.53 L848.567 1151.53  Z
  " fill="#009af9" fill-rule="evenodd" fill-opacity="1"/>
<polyline clip-path="url(#clip892)" style="stroke:#000000; stroke-width:4; stroke-opacity:1; fill:none" points="
  848.567,1151.53 848.567,1384.24 894.714,1384.24 894.714,1151.53 848.567,1151.53 
  "/>
<path clip-path="url(#clip892)" d="
M894.714 958.826 L894.714 1384.24 L940.861 1384.24 L940.861 958.826 L894.714 958.826 L894.714 958.826  Z
  " fill="#009af9" fill-rule="evenodd" fill-opacity="1"/>
<polyline clip-path="url(#clip892)" style="stroke:#000000; stroke-width:4; stroke-opacity:1; fill:none" points="
  894.714,958.826 894.714,1384.24 940.861,1384.24 940.861,958.826 894.714,958.826 
  "/>
<path clip-path="url(#clip892)" d="
M940.861 831.566 L940.861 1384.24 L987.008 1384.24 L987.008 831.566 L940.861 831.566 L940.861 831.566  Z
  " fill="#009af9" fill-rule="evenodd" fill-opacity="1"/>
<polyline clip-path="url(#clip892)" style="stroke:#000000; stroke-width:4; stroke-opacity:1; fill:none" points="
  940.861,831.566 940.861,1384.24 987.008,1384.24 987.008,831.566 940.861,831.566 
  "/>
<path clip-path="url(#clip892)" d="
M987.008 766.118 L987.008 1384.24 L1033.16 1384.24 L1033.16 766.118 L987.008 766.118 L987.008 766.118  Z
  " fill="#009af9" fill-rule="evenodd" fill-opacity="1"/>
<polyline clip-path="url(#clip892)" style="stroke:#000000; stroke-width:4; stroke-opacity:1; fill:none" points="
  987.008,766.118 987.008,1384.24 1033.16,1384.24 1033.16,766.118 987.008,766.118 
  "/>
<path clip-path="url(#clip892)" d="
M1033.16 649.766 L1033.16 1384.24 L1079.3 1384.24 L1079.3 649.766 L1033.16 649.766 L1033.16 649.766  Z
  " fill="#009af9" fill-rule="evenodd" fill-opacity="1"/>
<polyline clip-path="url(#clip892)" style="stroke:#000000; stroke-width:4; stroke-opacity:1; fill:none" points="
  1033.16,649.766 1033.16,1384.24 1079.3,1384.24 1079.3,649.766 1033.16,649.766 
  "/>
<path clip-path="url(#clip892)" d="
M1079.3 566.138 L1079.3 1384.24 L1125.45 1384.24 L1125.45 566.138 L1079.3 566.138 L1079.3 566.138  Z
  " fill="#009af9" fill-rule="evenodd" fill-opacity="1"/>
<polyline clip-path="url(#clip892)" style="stroke:#000000; stroke-width:4; stroke-opacity:1; fill:none" points="
  1079.3,566.138 1079.3,1384.24 1125.45,1384.24 1125.45,566.138 1079.3,566.138 
  "/>
<path clip-path="url(#clip892)" d="
M1125.45 275.258 L1125.45 1384.24 L1171.6 1384.24 L1171.6 275.258 L1125.45 275.258 L1125.45 275.258  Z
  " fill="#009af9" fill-rule="evenodd" fill-opacity="1"/>
<polyline clip-path="url(#clip892)" style="stroke:#000000; stroke-width:4; stroke-opacity:1; fill:none" points="
  1125.45,275.258 1125.45,1384.24 1171.6,1384.24 1171.6,275.258 1125.45,275.258 
  "/>
<path clip-path="url(#clip892)" d="
M1171.6 184.358 L1171.6 1384.24 L1217.74 1384.24 L1217.74 184.358 L1171.6 184.358 L1171.6 184.358  Z
  " fill="#009af9" fill-rule="evenodd" fill-opacity="1"/>
<polyline clip-path="url(#clip892)" style="stroke:#000000; stroke-width:4; stroke-opacity:1; fill:none" points="
  1171.6,184.358 1171.6,1384.24 1217.74,1384.24 1217.74,184.358 1171.6,184.358 
  "/>
<path clip-path="url(#clip892)" d="
M1217.74 86.1857 L1217.74 1384.24 L1263.89 1384.24 L1263.89 86.1857 L1217.74 86.1857 L1217.74 86.1857  Z
  " fill="#009af9" fill-rule="evenodd" fill-opacity="1"/>
<polyline clip-path="url(#clip892)" style="stroke:#000000; stroke-width:4; stroke-opacity:1; fill:none" points="
  1217.74,86.1857 1217.74,1384.24 1263.89,1384.24 1263.89,86.1857 1217.74,86.1857 
  "/>
<path clip-path="url(#clip892)" d="
M1263.89 166.178 L1263.89 1384.24 L1310.04 1384.24 L1310.04 166.178 L1263.89 166.178 L1263.89 166.178  Z
  " fill="#009af9" fill-rule="evenodd" fill-opacity="1"/>
<polyline clip-path="url(#clip892)" style="stroke:#000000; stroke-width:4; stroke-opacity:1; fill:none" points="
  1263.89,166.178 1263.89,1384.24 1310.04,1384.24 1310.04,166.178 1263.89,166.178 
  "/>
<path clip-path="url(#clip892)" d="
M1310.04 104.366 L1310.04 1384.24 L1356.18 1384.24 L1356.18 104.366 L1310.04 104.366 L1310.04 104.366  Z
  " fill="#009af9" fill-rule="evenodd" fill-opacity="1"/>
<polyline clip-path="url(#clip892)" style="stroke:#000000; stroke-width:4; stroke-opacity:1; fill:none" points="
  1310.04,104.366 1310.04,1384.24 1356.18,1384.24 1356.18,104.366 1310.04,104.366 
  "/>
<path clip-path="url(#clip892)" d="
M1356.18 140.726 L1356.18 1384.24 L1402.33 1384.24 L1402.33 140.726 L1356.18 140.726 L1356.18 140.726  Z
  " fill="#009af9" fill-rule="evenodd" fill-opacity="1"/>
<polyline clip-path="url(#clip892)" style="stroke:#000000; stroke-width:4; stroke-opacity:1; fill:none" points="
  1356.18,140.726 1356.18,1384.24 1402.33,1384.24 1402.33,140.726 1356.18,140.726 
  "/>
<path clip-path="url(#clip892)" d="
M1402.33 260.714 L1402.33 1384.24 L1448.48 1384.24 L1448.48 260.714 L1402.33 260.714 L1402.33 260.714  Z
  " fill="#009af9" fill-rule="evenodd" fill-opacity="1"/>
<polyline clip-path="url(#clip892)" style="stroke:#000000; stroke-width:4; stroke-opacity:1; fill:none" points="
  1402.33,260.714 1402.33,1384.24 1448.48,1384.24 1448.48,260.714 1402.33,260.714 
  "/>
<path clip-path="url(#clip892)" d="
M1448.48 373.43 L1448.48 1384.24 L1494.62 1384.24 L1494.62 373.43 L1448.48 373.43 L1448.48 373.43  Z
  " fill="#009af9" fill-rule="evenodd" fill-opacity="1"/>
<polyline clip-path="url(#clip892)" style="stroke:#000000; stroke-width:4; stroke-opacity:1; fill:none" points="
  1448.48,373.43 1448.48,1384.24 1494.62,1384.24 1494.62,373.43 1448.48,373.43 
  "/>
<path clip-path="url(#clip892)" d="
M1494.62 435.242 L1494.62 1384.24 L1540.77 1384.24 L1540.77 435.242 L1494.62 435.242 L1494.62 435.242  Z
  " fill="#009af9" fill-rule="evenodd" fill-opacity="1"/>
<polyline clip-path="url(#clip892)" style="stroke:#000000; stroke-width:4; stroke-opacity:1; fill:none" points="
  1494.62,435.242 1494.62,1384.24 1540.77,1384.24 1540.77,435.242 1494.62,435.242 
  "/>
<path clip-path="url(#clip892)" d="
M1540.77 442.514 L1540.77 1384.24 L1586.92 1384.24 L1586.92 442.514 L1540.77 442.514 L1540.77 442.514  Z
  " fill="#009af9" fill-rule="evenodd" fill-opacity="1"/>
<polyline clip-path="url(#clip892)" style="stroke:#000000; stroke-width:4; stroke-opacity:1; fill:none" points="
  1540.77,442.514 1540.77,1384.24 1586.92,1384.24 1586.92,442.514 1540.77,442.514 
  "/>
<path clip-path="url(#clip892)" d="
M1586.92 667.946 L1586.92 1384.24 L1633.07 1384.24 L1633.07 667.946 L1586.92 667.946 L1586.92 667.946  Z
  " fill="#009af9" fill-rule="evenodd" fill-opacity="1"/>
<polyline clip-path="url(#clip892)" style="stroke:#000000; stroke-width:4; stroke-opacity:1; fill:none" points="
  1586.92,667.946 1586.92,1384.24 1633.07,1384.24 1633.07,667.946 1586.92,667.946 
  "/>
<path clip-path="url(#clip892)" d="
M1633.07 911.558 L1633.07 1384.24 L1679.21 1384.24 L1679.21 911.558 L1633.07 911.558 L1633.07 911.558  Z
  " fill="#009af9" fill-rule="evenodd" fill-opacity="1"/>
<polyline clip-path="url(#clip892)" style="stroke:#000000; stroke-width:4; stroke-opacity:1; fill:none" points="
  1633.07,911.558 1633.07,1384.24 1679.21,1384.24 1679.21,911.558 1633.07,911.558 
  "/>
<path clip-path="url(#clip892)" d="
M1679.21 1013.37 L1679.21 1384.24 L1725.36 1384.24 L1725.36 1013.37 L1679.21 1013.37 L1679.21 1013.37  Z
  " fill="#009af9" fill-rule="evenodd" fill-opacity="1"/>
<polyline clip-path="url(#clip892)" style="stroke:#000000; stroke-width:4; stroke-opacity:1; fill:none" points="
  1679.21,1013.37 1679.21,1384.24 1725.36,1384.24 1725.36,1013.37 1679.21,1013.37 
  "/>
<path clip-path="url(#clip892)" d="
M1725.36 1020.64 L1725.36 1384.24 L1771.51 1384.24 L1771.51 1020.64 L1725.36 1020.64 L1725.36 1020.64  Z
  " fill="#009af9" fill-rule="evenodd" fill-opacity="1"/>
<polyline clip-path="url(#clip892)" style="stroke:#000000; stroke-width:4; stroke-opacity:1; fill:none" points="
  1725.36,1020.64 1725.36,1384.24 1771.51,1384.24 1771.51,1020.64 1725.36,1020.64 
  "/>
<path clip-path="url(#clip892)" d="
M1771.51 1133.35 L1771.51 1384.24 L1817.65 1384.24 L1817.65 1133.35 L1771.51 1133.35 L1771.51 1133.35  Z
  " fill="#009af9" fill-rule="evenodd" fill-opacity="1"/>
<polyline clip-path="url(#clip892)" style="stroke:#000000; stroke-width:4; stroke-opacity:1; fill:none" points="
  1771.51,1133.35 1771.51,1384.24 1817.65,1384.24 1817.65,1133.35 1771.51,1133.35 
  "/>
<path clip-path="url(#clip892)" d="
M1817.65 1231.53 L1817.65 1384.24 L1863.8 1384.24 L1863.8 1231.53 L1817.65 1231.53 L1817.65 1231.53  Z
  " fill="#009af9" fill-rule="evenodd" fill-opacity="1"/>
<polyline clip-path="url(#clip892)" style="stroke:#000000; stroke-width:4; stroke-opacity:1; fill:none" points="
  1817.65,1231.53 1817.65,1384.24 1863.8,1384.24 1863.8,1231.53 1817.65,1231.53 
  "/>
<path clip-path="url(#clip892)" d="
M1863.8 1289.7 L1863.8 1384.24 L1909.95 1384.24 L1909.95 1289.7 L1863.8 1289.7 L1863.8 1289.7  Z
  " fill="#009af9" fill-rule="evenodd" fill-opacity="1"/>
<polyline clip-path="url(#clip892)" style="stroke:#000000; stroke-width:4; stroke-opacity:1; fill:none" points="
  1863.8,1289.7 1863.8,1384.24 1909.95,1384.24 1909.95,1289.7 1863.8,1289.7 
  "/>
<path clip-path="url(#clip892)" d="
M1909.95 1307.88 L1909.95 1384.24 L1956.09 1384.24 L1956.09 1307.88 L1909.95 1307.88 L1909.95 1307.88  Z
  " fill="#009af9" fill-rule="evenodd" fill-opacity="1"/>
<polyline clip-path="url(#clip892)" style="stroke:#000000; stroke-width:4; stroke-opacity:1; fill:none" points="
  1909.95,1307.88 1909.95,1384.24 1956.09,1384.24 1956.09,1307.88 1909.95,1307.88 
  "/>
<path clip-path="url(#clip892)" d="
M1956.09 1336.97 L1956.09 1384.24 L2002.24 1384.24 L2002.24 1336.97 L1956.09 1336.97 L1956.09 1336.97  Z
  " fill="#009af9" fill-rule="evenodd" fill-opacity="1"/>
<polyline clip-path="url(#clip892)" style="stroke:#000000; stroke-width:4; stroke-opacity:1; fill:none" points="
  1956.09,1336.97 1956.09,1384.24 2002.24,1384.24 2002.24,1336.97 1956.09,1336.97 
  "/>
<path clip-path="url(#clip892)" d="
M2002.24 1336.97 L2002.24 1384.24 L2048.39 1384.24 L2048.39 1336.97 L2002.24 1336.97 L2002.24 1336.97  Z
  " fill="#009af9" fill-rule="evenodd" fill-opacity="1"/>
<polyline clip-path="url(#clip892)" style="stroke:#000000; stroke-width:4; stroke-opacity:1; fill:none" points="
  2002.24,1336.97 2002.24,1384.24 2048.39,1384.24 2048.39,1336.97 2002.24,1336.97 
  "/>
<path clip-path="url(#clip892)" d="
M2048.39 1362.42 L2048.39 1384.24 L2094.54 1384.24 L2094.54 1362.42 L2048.39 1362.42 L2048.39 1362.42  Z
  " fill="#009af9" fill-rule="evenodd" fill-opacity="1"/>
<polyline clip-path="url(#clip892)" style="stroke:#000000; stroke-width:4; stroke-opacity:1; fill:none" points="
  2048.39,1362.42 2048.39,1384.24 2094.54,1384.24 2094.54,1362.42 2048.39,1362.42 
  "/>
<path clip-path="url(#clip892)" d="
M2094.54 1380.6 L2094.54 1384.24 L2140.68 1384.24 L2140.68 1380.6 L2094.54 1380.6 L2094.54 1380.6  Z
  " fill="#009af9" fill-rule="evenodd" fill-opacity="1"/>
<polyline clip-path="url(#clip892)" style="stroke:#000000; stroke-width:4; stroke-opacity:1; fill:none" points="
  2094.54,1380.6 2094.54,1384.24 2140.68,1384.24 2140.68,1380.6 2094.54,1380.6 
  "/>
<path clip-path="url(#clip892)" d="
M2140.68 1376.97 L2140.68 1384.24 L2186.83 1384.24 L2186.83 1376.97 L2140.68 1376.97 L2140.68 1376.97  Z
  " fill="#009af9" fill-rule="evenodd" fill-opacity="1"/>
<polyline clip-path="url(#clip892)" style="stroke:#000000; stroke-width:4; stroke-opacity:1; fill:none" points="
  2140.68,1376.97 2140.68,1384.24 2186.83,1384.24 2186.83,1376.97 2140.68,1376.97 
  "/>
<path clip-path="url(#clip892)" d="
M2186.83 1373.33 L2186.83 1384.24 L2232.98 1384.24 L2232.98 1373.33 L2186.83 1373.33 L2186.83 1373.33  Z
  " fill="#009af9" fill-rule="evenodd" fill-opacity="1"/>
<polyline clip-path="url(#clip892)" style="stroke:#000000; stroke-width:4; stroke-opacity:1; fill:none" points="
  2186.83,1373.33 2186.83,1384.24 2232.98,1384.24 2232.98,1373.33 2186.83,1373.33 
  "/>
<polyline clip-path="url(#clip892)" style="stroke:#e26f46; stroke-width:12; stroke-opacity:1; fill:none" points="
  332.358,1382.93 351.555,1382.53 370.752,1382.02 389.949,1381.38 409.146,1380.56 428.343,1379.54 447.54,1378.26 466.737,1376.68 485.934,1374.72 505.131,1372.33 
  524.328,1369.4 543.525,1365.87 562.722,1361.6 581.919,1356.49 601.116,1350.41 620.313,1343.22 639.51,1334.75 658.707,1324.85 677.904,1313.35 697.101,1300.06 
  716.298,1284.81 735.495,1267.41 754.692,1247.7 773.889,1225.49 793.086,1200.65 812.283,1173.03 831.48,1142.54 850.677,1109.1 869.874,1072.69 889.071,1033.31 
  908.268,991.037 927.465,945.989 946.662,898.351 965.859,848.369 985.056,796.357 1004.25,742.69 1023.45,687.809 1042.65,632.212 1061.84,576.45 1081.04,521.119 
  1100.24,466.853 1119.43,414.306 1138.63,364.147 1157.83,317.04 1177.03,273.633 1196.22,234.544 1215.42,200.342 1234.62,171.539 1253.81,148.573 1273.01,131.798 
  1292.21,121.476 1311.4,117.77 1330.6,120.738 1349.8,130.332 1369,146.403 1388.19,168.699 1407.39,196.876 1426.59,230.503 1445.78,269.078 1464.98,312.036 
  1484.18,358.764 1503.37,408.618 1522.57,460.933 1541.77,515.042 1560.97,570.286 1580.16,626.03 1599.36,681.673 1618.56,736.66 1637.75,790.484 1656.95,842.699 
  1676.15,892.922 1695.34,940.833 1714.54,986.179 1733.74,1028.77 1752.94,1068.47 1772.13,1105.21 1791.33,1138.98 1810.53,1169.8 1829.72,1197.72 1848.92,1222.87 
  1868.12,1245.36 1887.31,1265.35 1906.51,1282.99 1925.71,1298.47 1944.91,1311.97 1964.1,1323.66 1983.3,1333.73 2002.5,1342.34 2021.69,1349.67 2040.89,1355.87 
  2060.09,1361.08 2079.28,1365.43 2098.48,1369.04 2117.68,1372.03 2136.88,1374.48 2156.07,1376.48 2175.27,1378.1 2194.47,1379.41 2213.66,1380.46 2232.86,1381.3 
  
  "/>
<path clip-path="url(#clip890)" d="
M1809.84 274.549 L2280.16 274.549 L2280.16 93.1086 L1809.84 93.1086  Z
  " fill="#ffffff" fill-rule="evenodd" fill-opacity="1"/>
<polyline clip-path="url(#clip890)" style="stroke:#000000; stroke-width:4; stroke-opacity:1; fill:none" points="
  1809.84,274.549 2280.16,274.549 2280.16,93.1086 1809.84,93.1086 1809.84,274.549 
  "/>
<path clip-path="url(#clip890)" d="
M1834.04 177.781 L1979.22 177.781 L1979.22 129.397 L1834.04 129.397 L1834.04 177.781  Z
  " fill="#009af9" fill-rule="evenodd" fill-opacity="1"/>
<polyline clip-path="url(#clip890)" style="stroke:#000000; stroke-width:4; stroke-opacity:1; fill:none" points="
  1834.04,177.781 1979.22,177.781 1979.22,129.397 1834.04,129.397 1834.04,177.781 
  "/>
<path clip-path="url(#clip890)" d="M 0 0 M2022.33 148.878 L2022.33 134.85 L2026.59 134.85 L2026.59 170.869 L2022.33 170.869 L2022.33 166.98 Q2020.98 169.295 2018.92 170.429 Q2016.89 171.54 2014.02 171.54 Q2009.32 171.54 2006.36 167.79 Q2003.42 164.04 2003.42 157.929 Q2003.42 151.818 2006.36 148.068 Q2009.32 144.318 2014.02 144.318 Q2016.89 144.318 2018.92 145.452 Q2020.98 146.563 2022.33 148.878 M2007.81 157.929 Q2007.81 162.628 2009.73 165.313 Q2011.68 167.975 2015.06 167.975 Q2018.44 167.975 2020.38 165.313 Q2022.33 162.628 2022.33 157.929 Q2022.33 153.23 2020.38 150.568 Q2018.44 147.883 2015.06 147.883 Q2011.68 147.883 2009.73 150.568 Q2007.81 153.23 2007.81 157.929 Z" fill="#000000" fill-rule="evenodd" fill-opacity="1" /><path clip-path="url(#clip890)" d="M 0 0 M2042.84 157.836 Q2037.67 157.836 2035.68 159.017 Q2033.69 160.197 2033.69 163.045 Q2033.69 165.313 2035.17 166.656 Q2036.68 167.975 2039.25 167.975 Q2042.79 167.975 2044.92 165.475 Q2047.07 162.952 2047.07 158.785 L2047.07 157.836 L2042.84 157.836 M2051.33 156.077 L2051.33 170.869 L2047.07 170.869 L2047.07 166.933 Q2045.61 169.295 2043.44 170.429 Q2041.26 171.54 2038.11 171.54 Q2034.13 171.54 2031.77 169.318 Q2029.43 167.072 2029.43 163.322 Q2029.43 158.947 2032.35 156.725 Q2035.29 154.503 2041.1 154.503 L2047.07 154.503 L2047.07 154.086 Q2047.07 151.147 2045.13 149.549 Q2043.21 147.929 2039.71 147.929 Q2037.49 147.929 2035.38 148.461 Q2033.28 148.994 2031.33 150.059 L2031.33 146.123 Q2033.67 145.221 2035.87 144.781 Q2038.07 144.318 2040.15 144.318 Q2045.78 144.318 2048.55 147.234 Q2051.33 150.151 2051.33 156.077 Z" fill="#000000" fill-rule="evenodd" fill-opacity="1" /><path clip-path="url(#clip890)" d="M 0 0 M2060.01 137.582 L2060.01 144.943 L2068.79 144.943 L2068.79 148.253 L2060.01 148.253 L2060.01 162.327 Q2060.01 165.498 2060.87 166.401 Q2061.75 167.304 2064.41 167.304 L2068.79 167.304 L2068.79 170.869 L2064.41 170.869 Q2059.48 170.869 2057.61 169.04 Q2055.73 167.188 2055.73 162.327 L2055.73 148.253 L2052.61 148.253 L2052.61 144.943 L2055.73 144.943 L2055.73 137.582 L2060.01 137.582 Z" fill="#000000" fill-rule="evenodd" fill-opacity="1" /><path clip-path="url(#clip890)" d="M 0 0 M2085.04 157.836 Q2079.87 157.836 2077.88 159.017 Q2075.89 160.197 2075.89 163.045 Q2075.89 165.313 2077.37 166.656 Q2078.88 167.975 2081.45 167.975 Q2084.99 167.975 2087.12 165.475 Q2089.27 162.952 2089.27 158.785 L2089.27 157.836 L2085.04 157.836 M2093.53 156.077 L2093.53 170.869 L2089.27 170.869 L2089.27 166.933 Q2087.81 169.295 2085.64 170.429 Q2083.46 171.54 2080.31 171.54 Q2076.33 171.54 2073.97 169.318 Q2071.63 167.072 2071.63 163.322 Q2071.63 158.947 2074.55 156.725 Q2077.49 154.503 2083.3 154.503 L2089.27 154.503 L2089.27 154.086 Q2089.27 151.147 2087.33 149.549 Q2085.41 147.929 2081.91 147.929 Q2079.69 147.929 2077.58 148.461 Q2075.48 148.994 2073.53 150.059 L2073.53 146.123 Q2075.87 145.221 2078.07 144.781 Q2080.27 144.318 2082.35 144.318 Q2087.98 144.318 2090.75 147.234 Q2093.53 150.151 2093.53 156.077 Z" fill="#000000" fill-rule="evenodd" fill-opacity="1" /><polyline clip-path="url(#clip890)" style="stroke:#e26f46; stroke-width:4; stroke-opacity:1; fill:none" points="
  1834.04,214.069 1979.22,214.069 
  "/>
<path clip-path="url(#clip890)" d="M 0 0 M2025.13 215.701 L2025.13 231.349 L2020.87 231.349 L2020.87 215.839 Q2020.87 212.159 2019.43 210.33 Q2018 208.502 2015.13 208.502 Q2011.68 208.502 2009.69 210.701 Q2007.7 212.9 2007.7 216.696 L2007.7 231.349 L2003.42 231.349 L2003.42 205.423 L2007.7 205.423 L2007.7 209.451 Q2009.23 207.113 2011.29 205.955 Q2013.37 204.798 2016.08 204.798 Q2020.55 204.798 2022.84 207.576 Q2025.13 210.33 2025.13 215.701 Z" fill="#000000" fill-rule="evenodd" fill-opacity="1" /><path clip-path="url(#clip890)" d="M 0 0 M2039.64 208.409 Q2036.22 208.409 2034.23 211.094 Q2032.23 213.756 2032.23 218.409 Q2032.23 223.062 2034.2 225.747 Q2036.19 228.409 2039.64 228.409 Q2043.04 228.409 2045.04 225.724 Q2047.03 223.038 2047.03 218.409 Q2047.03 213.802 2045.04 211.117 Q2043.04 208.409 2039.64 208.409 M2039.64 204.798 Q2045.2 204.798 2048.37 208.409 Q2051.54 212.02 2051.54 218.409 Q2051.54 224.775 2048.37 228.409 Q2045.2 232.02 2039.64 232.02 Q2034.06 232.02 2030.89 228.409 Q2027.74 224.775 2027.74 218.409 Q2027.74 212.02 2030.89 208.409 Q2034.06 204.798 2039.64 204.798 Z" fill="#000000" fill-rule="evenodd" fill-opacity="1" /><path clip-path="url(#clip890)" d="M 0 0 M2071.03 209.404 Q2070.31 208.988 2069.46 208.802 Q2068.62 208.594 2067.61 208.594 Q2063.99 208.594 2062.05 210.955 Q2060.13 213.293 2060.13 217.691 L2060.13 231.349 L2055.85 231.349 L2055.85 205.423 L2060.13 205.423 L2060.13 209.451 Q2061.47 207.089 2063.62 205.955 Q2065.78 204.798 2068.86 204.798 Q2069.29 204.798 2069.83 204.867 Q2070.36 204.914 2071.01 205.029 L2071.03 209.404 Z" fill="#000000" fill-rule="evenodd" fill-opacity="1" /><path clip-path="url(#clip890)" d="M 0 0 M2094.85 210.4 Q2096.45 207.529 2098.67 206.164 Q2100.89 204.798 2103.9 204.798 Q2107.95 204.798 2110.15 207.645 Q2112.35 210.469 2112.35 215.701 L2112.35 231.349 L2108.07 231.349 L2108.07 215.839 Q2108.07 212.113 2106.75 210.307 Q2105.43 208.502 2102.72 208.502 Q2099.41 208.502 2097.49 210.701 Q2095.57 212.9 2095.57 216.696 L2095.57 231.349 L2091.29 231.349 L2091.29 215.839 Q2091.29 212.089 2089.97 210.307 Q2088.65 208.502 2085.89 208.502 Q2082.63 208.502 2080.71 210.724 Q2078.79 212.923 2078.79 216.696 L2078.79 231.349 L2074.5 231.349 L2074.5 205.423 L2078.79 205.423 L2078.79 209.451 Q2080.24 207.066 2082.28 205.932 Q2084.32 204.798 2087.12 204.798 Q2089.94 204.798 2091.91 206.233 Q2093.9 207.668 2094.85 210.4 Z" fill="#000000" fill-rule="evenodd" fill-opacity="1" /><path clip-path="url(#clip890)" d="M 0 0 M2128.6 218.316 Q2123.44 218.316 2121.45 219.497 Q2119.46 220.677 2119.46 223.525 Q2119.46 225.793 2120.94 227.136 Q2122.44 228.455 2125.01 228.455 Q2128.55 228.455 2130.68 225.955 Q2132.84 223.432 2132.84 219.265 L2132.84 218.316 L2128.6 218.316 M2137.1 216.557 L2137.1 231.349 L2132.84 231.349 L2132.84 227.413 Q2131.38 229.775 2129.2 230.909 Q2127.03 232.02 2123.88 232.02 Q2119.9 232.02 2117.54 229.798 Q2115.2 227.552 2115.2 223.802 Q2115.2 219.427 2118.11 217.205 Q2121.05 214.983 2126.86 214.983 L2132.84 214.983 L2132.84 214.566 Q2132.84 211.627 2130.89 210.029 Q2128.97 208.409 2125.48 208.409 Q2123.25 208.409 2121.15 208.941 Q2119.04 209.474 2117.1 210.539 L2117.1 206.603 Q2119.43 205.701 2121.63 205.261 Q2123.83 204.798 2125.91 204.798 Q2131.54 204.798 2134.32 207.714 Q2137.1 210.631 2137.1 216.557 Z" fill="#000000" fill-rule="evenodd" fill-opacity="1" /><path clip-path="url(#clip890)" d="M 0 0 M2141.56 195.33 L2145.82 195.33 L2145.82 231.349 L2141.56 231.349 L2141.56 195.33 Z" fill="#000000" fill-rule="evenodd" fill-opacity="1" /><path clip-path="url(#clip890)" d="M 0 0 M2169.48 227.46 L2169.48 241.21 L2165.2 241.21 L2165.2 205.423 L2169.48 205.423 L2169.48 209.358 Q2170.82 207.043 2172.86 205.932 Q2174.92 204.798 2177.77 204.798 Q2182.49 204.798 2185.43 208.548 Q2188.39 212.298 2188.39 218.409 Q2188.39 224.52 2185.43 228.27 Q2182.49 232.02 2177.77 232.02 Q2174.92 232.02 2172.86 230.909 Q2170.82 229.775 2169.48 227.46 M2183.97 218.409 Q2183.97 213.71 2182.03 211.048 Q2180.1 208.363 2176.72 208.363 Q2173.35 208.363 2171.4 211.048 Q2169.48 213.71 2169.48 218.409 Q2169.48 223.108 2171.4 225.793 Q2173.35 228.455 2176.72 228.455 Q2180.1 228.455 2182.03 225.793 Q2183.97 223.108 2183.97 218.409 Z" fill="#000000" fill-rule="evenodd" fill-opacity="1" /><path clip-path="url(#clip890)" d="M 0 0 M2209.92 209.358 L2209.92 195.33 L2214.18 195.33 L2214.18 231.349 L2209.92 231.349 L2209.92 227.46 Q2208.58 229.775 2206.52 230.909 Q2204.48 232.02 2201.61 232.02 Q2196.91 232.02 2193.95 228.27 Q2191.01 224.52 2191.01 218.409 Q2191.01 212.298 2193.95 208.548 Q2196.91 204.798 2201.61 204.798 Q2204.48 204.798 2206.52 205.932 Q2208.58 207.043 2209.92 209.358 M2195.41 218.409 Q2195.41 223.108 2197.33 225.793 Q2199.27 228.455 2202.65 228.455 Q2206.03 228.455 2207.97 225.793 Q2209.92 223.108 2209.92 218.409 Q2209.92 213.71 2207.97 211.048 Q2206.03 208.363 2202.65 208.363 Q2199.27 208.363 2197.33 211.048 Q2195.41 213.71 2195.41 218.409 Z" fill="#000000" fill-rule="evenodd" fill-opacity="1" /><path clip-path="url(#clip890)" d="M 0 0 M2231.77 195.33 L2231.77 198.872 L2227.7 198.872 Q2225.41 198.872 2224.5 199.798 Q2223.62 200.724 2223.62 203.131 L2223.62 205.423 L2230.64 205.423 L2230.64 208.733 L2223.62 208.733 L2223.62 231.349 L2219.34 231.349 L2219.34 208.733 L2215.27 208.733 L2215.27 205.423 L2219.34 205.423 L2219.34 203.617 Q2219.34 199.289 2221.35 197.321 Q2223.37 195.33 2227.74 195.33 L2231.77 195.33 Z" fill="#000000" fill-rule="evenodd" fill-opacity="1" /></svg>
